…
## Group_by()

``` r
weather_df |>
  group_by(name, month)
```

    ## # A tibble: 2,190 × 7
    ## # Groups:   name, month [72]
    ##    name           id          date        prcp  tmax  tmin month     
    ##    <chr>          <chr>       <date>     <dbl> <dbl> <dbl> <date>    
    ##  1 CentralPark_NY USW00094728 2021-01-01   157   4.4   0.6 2021-01-01
    ##  2 CentralPark_NY USW00094728 2021-01-02    13  10.6   2.2 2021-01-01
    ##  3 CentralPark_NY USW00094728 2021-01-03    56   3.3   1.1 2021-01-01
    ##  4 CentralPark_NY USW00094728 2021-01-04     5   6.1   1.7 2021-01-01
    ##  5 CentralPark_NY USW00094728 2021-01-05     0   5.6   2.2 2021-01-01
    ##  6 CentralPark_NY USW00094728 2021-01-06     0   5     1.1 2021-01-01
    ##  7 CentralPark_NY USW00094728 2021-01-07     0   5    -1   2021-01-01
    ##  8 CentralPark_NY USW00094728 2021-01-08     0   2.8  -2.7 2021-01-01
    ##  9 CentralPark_NY USW00094728 2021-01-09     0   2.8  -4.3 2021-01-01
    ## 10 CentralPark_NY USW00094728 2021-01-10     0   5    -1.6 2021-01-01
    ## # ℹ 2,180 more rows

counting stuff

``` r
weather_df |>
  group_by(month) |>
  summarize(
    n_obs= n(),
    n_dist = n_distinct(month))
```

    ## # A tibble: 24 × 3
    ##    month      n_obs n_dist
    ##    <date>     <int>  <int>
    ##  1 2021-01-01    93      1
    ##  2 2021-02-01    84      1
    ##  3 2021-03-01    93      1
    ##  4 2021-04-01    90      1
    ##  5 2021-05-01    93      1
    ##  6 2021-06-01    90      1
    ##  7 2021-07-01    93      1
    ##  8 2021-08-01    93      1
    ##  9 2021-09-01    90      1
    ## 10 2021-10-01    93      1
    ## # ℹ 14 more rows
…
## General numeric summaries

Lets try some other useful summaries

``` r
weather_df |>
  group_by(month) |>
  summarize(
    mean_tmax = mean(tmax, na.rm = TRUE),
    mean_prec = mean(prcp, na.rm = TRUE),
    median_tmax = median(tmax),
    sd_tmax = sd(tmax))
```

    ## # A tibble: 24 × 5
    ##    month      mean_tmax mean_prec median_tmax sd_tmax
    ##    <date>         <dbl>     <dbl>       <dbl>   <dbl>
    ##  1 2021-01-01     10.9       39.5         5     12.2 
    ##  2 2021-02-01      9.82      42.6         2.8   12.2 
    ##  3 2021-03-01     13.7       55.5        NA     NA   
    ##  4 2021-04-01     16.8       14.7        18.0    9.29
    ##  5 2021-05-01     19.6       17.3        22.2    9.40
    ##  6 2021-06-01     24.3       14.1        28.3    8.28
    ##  7 2021-07-01     25.2       30.7        28.3    6.19
    ##  8 2021-08-01     25.2       30.6        28.3    6.72
    ##  9 2021-09-01     22.4       35.4        24.4    7.69
    ## 10 2021-10-01     18.2       36.0        20.6   10.1 
    ## # ℹ 14 more rows

summarize and them plot…

``` r
weather_df |>
  group_by(month) |>
  summarize(
    mean_tmax = mean(tmax, na.rm = TRUE),
    mean_prec = mean(prcp, na.rm = TRUE),
    median_tmax = median(tmax),
    sd_tmax = sd(tmax))
```

    ## # A tibble: 24 × 5
    ##    month      mean_tmax mean_prec median_tmax sd_tmax
    ##    <date>         <dbl>     <dbl>       <dbl>   <dbl>
    ##  1 2021-01-01     10.9       39.5         5     12.2 
    ##  2 2021-02-01      9.82      42.6         2.8   12.2 
    ##  3 2021-03-01     13.7       55.5        NA     NA   
    ##  4 2021-04-01     16.8       14.7        18.0    9.29
    ##  5 2021-05-01     19.6       17.3        22.2    9.40
    ##  6 2021-06-01     24.3       14.1        28.3    8.28
    ##  7 2021-07-01     25.2       30.7        28.3    6.19
    ##  8 2021-08-01     25.2       30.6        28.3    6.72
    ##  9 2021-09-01     22.4       35.4        24.4    7.69
    ## 10 2021-10-01     18.2       36.0        20.6   10.1 
    ## # ℹ 14 more rows

``` r
weather_df |>
  group_by(name, month) |>
  summarize(across(tmin:prcp, mean))
```

    ## `summarise()` has grouped output by 'name'. You can override using the
    ## `.groups` argument.

    ## # A tibble: 72 × 5
    ## # Groups:   name [3]
    ##    name           month       tmin  tmax  prcp
    ##    <chr>          <date>     <dbl> <dbl> <dbl>
    ##  1 CentralPark_NY 2021-01-01 -1.15  4.27  18.9
    ##  2 CentralPark_NY 2021-02-01 -1.39  3.87  46.6
    ##  3 CentralPark_NY 2021-03-01  3.1  12.3   28.0
    ##  4 CentralPark_NY 2021-04-01  7.48 17.6   22.8
    ##  5 CentralPark_NY 2021-05-01 12.2  22.1   35.7
    ##  6 CentralPark_NY 2021-06-01 18.9  28.1   22.2
    ##  7 CentralPark_NY 2021-07-01 20.6  28.4   90.9
    ##  8 CentralPark_NY 2021-08-01 21.8  28.8   84.5
    ##  9 CentralPark_NY 2021-09-01 17.8  24.8   84.9
    ## 10 CentralPark_NY 2021-10-01 13.4  19.9   43.1
    ## # ℹ 62 more rows
…
